# 1984: http://web.archive.org/web/20061231125300/http://events.ccc.de/congress/1984/
? 1985: http://web.archive.org/web/20070105035702/http://events.ccc.de/congress/1985/
? 1986: http://web.archive.org/web/20061231125802/http://events.ccc.de/congress/1986/
? 1987: http://web.archive.org/web/20061231130107/http://events.ccc.de/congress/1987/
? 1988: http://web.archive.org/web/20070105040438/http://events.ccc.de/congress/1988/
? 1989: http://web.archive.org/web/20070105035451/http://events.ccc.de/congress/1989/
? 1990: http://web.archive.org/web/20070105040210/http://events.ccc.de/congress/1990/
? 1991: http://web.archive.org/web/20070105035654/http://events.ccc.de/congress/1991/
? 1992: http://web.archive.org/web/20060618055059/http://events.ccc.de/congress/1992/
+ 1993
+ 1994
+ 1995
- 1996
+ 1997
+ 1998
+ 1999
+ 2000
+ 2001
* 2002
* 2003
* 2004
* 2005
* 2006
* 2007
* 2008
* 2009
* 2010
* 2011
* 2012
* 2013
* 2014
* 2015
* 2016 ???
